%YAML 1.1
%TAG !u! tag:unity3d.com,2011:
--- !u!1001 &100100000
Prefab:
  m_ObjectHideFlags: 1
  serializedVersion: 2
  m_Modification:
    m_TransformParent: {fileID: 0}
    m_Modifications: []
    m_RemovedComponents: []
  m_ParentPrefab: {fileID: 0}
  m_RootGameObject: {fileID: 1573630162383426}
  m_IsPrefabParent: 1
--- !u!1 &1573630162383426
GameObject:
  m_ObjectHideFlags: 0
  m_PrefabParentObject: {fileID: 0}
  m_PrefabInternal: {fileID: 100100000}
  serializedVersion: 5
  m_Component:
  - component: {fileID: 4766996124723658}
  - component: {fileID: 114016084105140864}
  - component: {fileID: 114402726065303602}
  - component: {fileID: 33052625503642894}
  - component: {fileID: 23251168389028812}
  - component: {fileID: 65188316972974850}
  m_Layer: 9
  m_Name: VerticalExplosionBlock
  m_TagString: Untagged
  m_Icon: {fileID: 0}
  m_NavMeshLayer: 0
  m_StaticEditorFlags: 4294967295
  m_IsActive: 1
--- !u!4 &4766996124723658
Transform:
  m_ObjectHideFlags: 1
  m_PrefabParentObject: {fileID: 0}
  m_PrefabInternal: {fileID: 100100000}
  m_GameObject: {fileID: 1573630162383426}
  m_LocalRotation: {x: -0, y: -0, z: -0, w: 1}
  m_LocalPosition: {x: 0, y: 0, z: 0}
  m_LocalScale: {x: 1, y: 1, z: 1}
  m_Children: []
  m_Father: {fileID: 0}
  m_RootOrder: 0
  m_LocalEulerAnglesHint: {x: 0, y: 0, z: 0}
--- !u!23 &23251168389028812
MeshRenderer:
  m_ObjectHideFlags: 1
  m_PrefabParentObject: {fileID: 0}
  m_PrefabInternal: {fileID: 100100000}
  m_GameObject: {fileID: 1573630162383426}
  m_Enabled: 1
  m_CastShadows: 1
  m_ReceiveShadows: 1
  m_DynamicOccludee: 1
  m_MotionVectors: 1
  m_LightProbeUsage: 1
  m_ReflectionProbeUsage: 1
  m_RenderingLayerMask: 4294967295
  m_Materials:
  - {fileID: 2100000, guid: 0afcc78653c13c14191a9cb661bcd1f6, type: 3}
  m_StaticBatchInfo:
    firstSubMesh: 0
    subMeshCount: 0
  m_StaticBatchRoot: {fileID: 0}
  m_ProbeAnchor: {fileID: 0}
  m_LightProbeVolumeOverride: {fileID: 0}
  m_ScaleInLightmap: 1
  m_PreserveUVs: 0
  m_IgnoreNormalsForChartDetection: 0
  m_ImportantGI: 0
  m_StitchLightmapSeams: 0
  m_SelectedEditorRenderState: 3
  m_MinimumChartSize: 4
  m_AutoUVMaxDistance: 0.5
  m_AutoUVMaxAngle: 89
  m_LightmapParameters: {fileID: 0}
  m_SortingLayerID: 0
  m_SortingLayer: 0
  m_SortingOrder: 0
--- !u!33 &33052625503642894
MeshFilter:
  m_ObjectHideFlags: 1
  m_PrefabParentObject: {fileID: 0}
  m_PrefabInternal: {fileID: 100100000}
  m_GameObject: {fileID: 1573630162383426}
  m_Mesh: {fileID: 4300000, guid: 0afcc78653c13c14191a9cb661bcd1f6, type: 3}
--- !u!65 &65188316972974850
BoxCollider:
  m_ObjectHideFlags: 1
  m_PrefabParentObject: {fileID: 0}
  m_PrefabInternal: {fileID: 100100000}
  m_GameObject: {fileID: 1573630162383426}
  m_Material: {fileID: 0}
  m_IsTrigger: 1
  m_Enabled: 1
  serializedVersion: 2
  m_Size: {x: 2.8272605, y: 2.8272598, z: 2.82726}
  m_Center: {x: 0.00000029802322, y: 0.00000047683716, z: 0}
--- !u!114 &114016084105140864
MonoBehaviour:
  m_ObjectHideFlags: 1
  m_PrefabParentObject: {fileID: 0}
  m_PrefabInternal: {fileID: 100100000}
  m_GameObject: {fileID: 1573630162383426}
  m_Enabled: 1
  m_EditorHideFlags: 0
  m_Script: {fileID: 11500000, guid: 6f580f6e51c57144f81120426241da90, type: 3}
  m_Name: 
  m_EditorClassIdentifier: 
  x: -1
  y: -1
  IsInvalid: 0
  IsBlockingExplosion: 1
  CanHoldBomb: 0
  CanBeDamaged: 0
  IsProcessing: 0
  ToolTipText: Vertical Explosive Block. Upon destruction, explodes the whole row
    of tiles horizontally.
  m_debugColor: {r: 0.990566, g: 0.06074228, b: 0.06074228, a: 1}
--- !u!114 &114402726065303602
MonoBehaviour:
  m_ObjectHideFlags: 1
  m_PrefabParentObject: {fileID: 0}
  m_PrefabInternal: {fileID: 100100000}
  m_GameObject: {fileID: 1573630162383426}
  m_Enabled: 1
  m_EditorHideFlags: 0
  m_Script: {fileID: 11500000, guid: 16eb4ecdefc43944992b57c8275e4bfb, type: 3}
  m_Name: 
  m_EditorClassIdentifier: 
  m_audioClips:
  - {fileID: 8300000, guid: 986cf9ccea6f3c04489fffc3eef5f17b, type: 3}
  - {fileID: 8300000, guid: 20c83d17073c152468275cdcc6f413a8, type: 3}
  - {fileID: 8300000, guid: 7a000d0758c5d9648b4f348329eb6a9f, type: 3}
  - {fileID: 8300000, guid: 96a60004761d9e44caf4228130e52bd6, type: 3}
  - {fileID: 8300000, guid: e76d1f842c0fe934ebbe2ab4c1424cb0, type: 3}
  m_playOnAwake: 0
  m_playOnEnable: 0
  m_volume: 1
