%YAML 1.1
%TAG !u! tag:unity3d.com,2011:
--- !u!1001 &100100000
Prefab:
  m_ObjectHideFlags: 1
  serializedVersion: 2
  m_Modification:
    m_TransformParent: {fileID: 0}
    m_Modifications: []
    m_RemovedComponents: []
  m_ParentPrefab: {fileID: 0}
  m_RootGameObject: {fileID: 1283513350264784}
  m_IsPrefabParent: 1
--- !u!1 &1283513350264784
GameObject:
  m_ObjectHideFlags: 0
  m_PrefabParentObject: {fileID: 0}
  m_PrefabInternal: {fileID: 100100000}
  serializedVersion: 5
  m_Component:
  - component: {fileID: 4772794099547786}
  - component: {fileID: 114727250686768918}
  m_Layer: 0
  m_Name: BoardLoader
  m_TagString: Untagged
  m_Icon: {fileID: 0}
  m_NavMeshLayer: 0
  m_StaticEditorFlags: 0
  m_IsActive: 1
--- !u!4 &4772794099547786
Transform:
  m_ObjectHideFlags: 1
  m_PrefabParentObject: {fileID: 0}
  m_PrefabInternal: {fileID: 100100000}
  m_GameObject: {fileID: 1283513350264784}
  m_LocalRotation: {x: 0, y: 0, z: 0, w: 1}
  m_LocalPosition: {x: 0, y: 0, z: 0}
  m_LocalScale: {x: 1, y: 1, z: 1}
  m_Children: []
  m_Father: {fileID: 0}
  m_RootOrder: 0
  m_LocalEulerAnglesHint: {x: 0, y: 0, z: 0}
--- !u!114 &114727250686768918
MonoBehaviour:
  m_ObjectHideFlags: 1
  m_PrefabParentObject: {fileID: 0}
  m_PrefabInternal: {fileID: 100100000}
  m_GameObject: {fileID: 1283513350264784}
  m_Enabled: 1
  m_EditorHideFlags: 0
  m_Script: {fileID: 11500000, guid: a9fc69d5e4d2fd846b9cac8d520bccd4, type: 3}
  m_Name: 
  m_EditorClassIdentifier: 
  m_backgrounds:
  - {fileID: 1119402062713010, guid: f276fa7bb13e0c24ea996ebe9b79bb70, type: 2}
  - {fileID: 1242598969658786, guid: 7e6dd8861a415b24a95f4f7f6ba7f89a, type: 2}
  - {fileID: 1082791470811466, guid: e9ea6ece65c2d084885f82f5a12c61f7, type: 2}
  m_boardPaths:
  - level_3_babies
  - level_chain
  - level_gramps
  - level_spread
  - level_order
  - level_grandma
  - level_diamonds
  - level_xmen
  - level_2_health
  - level_columns
  - level_shotgun
  - level_whoopsie
  - level_steps
  - level_care_bears
  - level_push
  - level_prison
  - level_atrium
  - level_storage
  - level_cricket
  - level_bomber_man
  - level_oil_rig
  - level_pistol
  - level_pinball
  - level_docks
  - level_love
  - level_wanted
