B1,+2,X1,,,,,,,
__,__,__,__,__,__,__,__,__,__
__,#_,#_,#_,#_,#_,#_,#_,__,__
__,D1,D1,C_,D1,C_,D1,#_,__,__
__,P_,P_,P_,P_,P_,P_,#_,__,__
__,D1,C_,P_,P_,P_,C_,#_,__,__
__,P_,P_,P_,P_,P_,P_,#_,__,__
__,D1,D1,C_,D1,C_,D1,#_,__,__
__,D1,E_,E_,E_,E_,E_,$_,__,__
__,D1,D1,D1,D1,D1,D1,__,__,__
__,__,__,__,__,__,__,__,__,__