>6,+7,,,,,,,,
$_,E_,__,D1,__,D1,__,__,V_,__
__,__,P_,__,P_,__,P_,__,__,__
__,__,P_,__,P_,__,P_,__,__,__
__,__,E_,D1,E_,D1,E_,D1,C_,__
__,P_,__,__,__,__,__,__,C_,__
__,__,D1,E_,D1,E_,D1,E_,C_,__
__,__,__,P_,__,P_,__,P_,__,__
__,__,__,P_,__,P_,__,P_,__,__
__,__,D1,__,D1,__,D1,__,E_,__
__,__,__,D1,__,D1,__,D1,__,$_